%YAML 1.1
%TAG !u! tag:unity3d.com,2011:
--- !u!114 &11400000
MonoBehaviour:
  m_ObjectHideFlags: 0
  m_CorrespondingSourceObject: {fileID: 0}
  m_PrefabInstance: {fileID: 0}
  m_PrefabAsset: {fileID: 0}
  m_GameObject: {fileID: 0}
  m_Enabled: 1
  m_EditorHideFlags: 0
  m_Script: {fileID: 11500000, guid: 9687a33a9331dc944aedffeff303eafa, type: 3}
  m_Name: AxeWeapon
  m_EditorClassIdentifier: 
  id: 0
  name: Axe Of Troll
  icon: {fileID: 21300000, guid: a7405b82426b35140a16af34ce0ff8e4, type: 3}
  levelCanUse: 0
  type: 2
  describe: A weapon of some trolls, it pretty heavy and danger
  prefab: {fileID: 6836805298113016535, guid: 8c14c56b76eb5074885eb7cd45d15139, type: 3}
  dmgBase: 10
