%YAML 1.1
%TAG !u! tag:unity3d.com,2011:
--- !u!114 &11400000
MonoBehaviour:
  m_ObjectHideFlags: 0
  m_CorrespondingSourceObject: {fileID: 0}
  m_PrefabInstance: {fileID: 0}
  m_PrefabAsset: {fileID: 0}
  m_GameObject: {fileID: 0}
  m_Enabled: 1
  m_EditorHideFlags: 0
  m_Script: {fileID: 11500000, guid: 3d4e77d483aeace45828d827af561623, type: 3}
  m_Name: Hands_01_ClotherSO
  m_EditorClassIdentifier: 
  id: 0
  name: Hand 01
  icon: {fileID: 21300000, guid: a10f46d1fb38f89428f4e47c7465be47, type: 3}
  levelCanUse: 0
  type: 7
  describe: Test Hand
  countMax: 0
  prefab: {fileID: 5693533062631096195, guid: 59026a20cbe3fb74ba80f027819b06aa, type: 3}
  statBase:
    dmgBase: 0
    hpBase: 5
    staBase: 10
    manaBase: 0
