%YAML 1.1
%TAG !u! tag:unity3d.com,2011:
--- !u!114 &11400000
MonoBehaviour:
  m_ObjectHideFlags: 0
  m_CorrespondingSourceObject: {fileID: 0}
  m_PrefabInstance: {fileID: 0}
  m_PrefabAsset: {fileID: 0}
  m_GameObject: {fileID: 0}
  m_Enabled: 1
  m_EditorHideFlags: 0
  m_Script: {fileID: 11500000, guid: 121cf5fec5228d34c90aa3425bcbb09d, type: 3}
  m_Name: ValueExpToNextLevelSO
  m_EditorClassIdentifier: 
  listValueExp: 0a000000500000007800000096000000c8000000
